{
	"Hosts" : "Comp-01",
	"Gather_Facts" : true, //true by default
	
	"Tasks" : [
		{
			"Name" : "Copy over hta",
			"Copy" : {
				"FileName" : "C:\\Temp\\Message HTA\\Notification.hta",
				"Destination" : "C:\\Temp\\Message\\",
				"Force" : true
			}
		},
		{
			"Name" : "Launch HTA",
			"HTA" : {
				"FileName" : "C:\\Temp\\Message\\Notification.hta"
			}
		},
		{
      "Name" : "Facts",
      "ShowFacts" : {
        "Property" : [
          "LastLoggedonUser",
          "Model"
        ]
      }
    },
		{
      "Name" : "gpupdate command",
      "Shell" : {
        "Command" : "gpupdate /force"
      }
    },
		{
      "Name" : "Message",
      "SendMessage" : {
        "Message" : "Lol you didnt have to log out. You are good to go. Thank you!",
        "Timeout" : "3600"
      }
    },
		{
      "Name" : "Reboot",
      "Shutdown" : {
        "Timeout" : "600",
        "Comment" : "Rebooting due for upgrade. For questions, contact your mom",
        "Force" : true,
        "State" : "Restarted"
      }
    },
		{
      "Name" : "Product Install",
      "NewMSI" : {
        "Path" : "C:\Temp\Product_v2.3.4.msi",
        "ProductName" : "Product",
        "ProductVerion" : "2.3.4"
      }
    }
	]
}
